<?xml version="1.0" encoding="utf-8"?>
<!-- Generator: Adobe Illustrator 15.0.0, SVG Export Plug-In . SVG Version: 6.00 Build 0)  -->
<!DOCTYPE svg PUBLIC "-//W3C//DTD SVG 1.1//EN" "http://www.w3.org/Graphics/SVG/1.1/DTD/svg11.dtd" [
	<!ENTITY ns_extend "http://ns.adobe.com/Extensibility/1.0/">
	<!ENTITY ns_ai "http://ns.adobe.com/AdobeIllustrator/10.0/">
	<!ENTITY ns_graphs "http://ns.adobe.com/Graphs/1.0/">
	<!ENTITY ns_vars "http://ns.adobe.com/Variables/1.0/">
	<!ENTITY ns_imrep "http://ns.adobe.com/ImageReplacement/1.0/">
	<!ENTITY ns_sfw "http://ns.adobe.com/SaveForWeb/1.0/">
	<!ENTITY ns_custom "http://ns.adobe.com/GenericCustomNamespace/1.0/">
	<!ENTITY ns_adobe_xpath "http://ns.adobe.com/XPath/1.0/">
]>
<svg version="1.1" id="Layer_1" xmlns:x="&ns_extend;" xmlns:i="&ns_ai;" xmlns:graph="&ns_graphs;"
	 xmlns="http://www.w3.org/2000/svg" xmlns:xlink="http://www.w3.org/1999/xlink" x="0px" y="0px" width="50px" height="50px"
	 viewBox="0 0 50 50" enable-background="new 0 0 50 50" xml:space="preserve">
<metadata>
	<sfw  xmlns="&ns_sfw;">
		<slices></slices>
		<sliceSourceBounds  height="49.703" width="45.835" x="266.665" y="129.648" bottomLeftOrigin="true"></sliceSourceBounds>
	</sfw>
</metadata>
<g id="Reload">
</g>
<path fill="#FFFFFF" d="M4.096,26.795c-1.104,0-1.931,0.689-1.931,1.793c0.827,11.873,10.769,21.264,22.918,21.264
	C37.782,49.852,48,39.496,48,26.932C48,14.368,37.646,4.151,25.083,4.013V1.528c0-0.827-0.415-1.379-0.968-1.379l0,0
	c-0.275,0-0.551,0.138-0.827,0.276L10.587,6.913c-0.965,0.413-0.965,1.243,0,1.795l12.702,6.488c0.965,0.555,1.795,0,1.795-1.104
	v-2.485c8.421,0.138,15.324,6.903,15.324,15.325c0,8.422-6.903,15.188-15.324,15.188c-7.872,0-14.359-5.936-15.188-13.529
	c-0.138-1.105-0.83-1.795-1.934-1.795H4.096L4.096,26.795z"/>
</svg>
